[
    {
        "id": "8c7858ec.ea668",
        "type": "tab",
        "label": "Hash",
        "disabled": false,
        "info": ""
    },
    {
        "id": "105c4c18.ecd7b4",
        "type": "group",
        "z": "8c7858ec.ea668",
        "name": "RIPEMD-160",
        "style": {
            "fill": "#bfdbef",
            "label": true
        },
        "nodes": [
            "ef3300a7.cefa2",
            "473be4f8.aafd7c",
            "e3cedf4.f4e102",
            "190e7916.6c6bef",
            "80dd8194.ef241",
            "7afd7dea.0b24fc",
            "c4ed2e6d.dfadb"
        ],
        "x": 54,
        "y": 239,
        "w": 972,
        "h": 142
    },
    {
        "id": "3db0090c.2f77b6",
        "type": "group",
        "z": "8c7858ec.ea668",
        "name": "SHA-256",
        "style": {
            "fill": "#e3f3d3",
            "label": true
        },
        "nodes": [
            "f22508c6.fbb47",
            "39696a59.a28096",
            "e26d9089.3ed2b8",
            "7b6f56a.2631da8",
            "435ea6df.7bb288",
            "cec4c54d.5248a",
            "cacc40b7.24627"
        ],
        "x": 54,
        "y": 79,
        "w": 972,
        "h": 142
    },
    {
        "id": "5106f040.3e5d8",
        "type": "comment",
        "z": "8c7858ec.ea668",
        "name": "(c) 2021 Thomas Wenzlaff   www.wenzlaff.info",
        "info": "",
        "x": 850,
        "y": 460,
        "wires": []
    },
    {
        "id": "4db0e3c6.21085c",
        "type": "comment",
        "z": "8c7858ec.ea668",
        "name": "Node: node-red-contrib-cryptography",
        "info": "",
        "x": 210,
        "y": 460,
        "wires": []
    },
    {
        "id": "f22508c6.fbb47",
        "type": "ui_text",
        "z": "8c7858ec.ea668",
        "g": "3db0090c.2f77b6",
        "group": "95ba5217.dbe8b8",
        "order": 2,
        "width": "0",
        "height": "0",
        "name": "Hash Ausgabe",
        "label": "Berechneter SHA-256 Hash",
        "format": "{{msg.payload}}",
        "layout": "col-center",
        "x": 920,
        "y": 160,
        "wires": []
    },
    {
        "id": "39696a59.a28096",
        "type": "ui_text_input",
        "z": "8c7858ec.ea668",
        "g": "3db0090c.2f77b6",
        "name": "Eingabefeld",
        "label": "Hier die SHA-256 Eingabe des Klartext",
        "tooltip": "Eingabe des Wertes für den ein Hash automatisch berechnet wird",
        "group": "95ba5217.dbe8b8",
        "order": 3,
        "width": 0,
        "height": 0,
        "passthru": true,
        "mode": "text",
        "delay": 300,
        "topic": "topic",
        "topicType": "msg",
        "x": 470,
        "y": 180,
        "wires": [
            [
                "7b6f56a.2631da8"
            ]
        ]
    },
    {
        "id": "ef3300a7.cefa2",
        "type": "ui_text_input",
        "z": "8c7858ec.ea668",
        "g": "105c4c18.ecd7b4",
        "name": "Eingabefeld",
        "label": "Hier die RIPEMD-160 Eingabe des Klartext",
        "tooltip": "Eingabe des Wertes für den ein Hash automatisch berechnet wird",
        "group": "6743b83e.0ad88",
        "order": 3,
        "width": 0,
        "height": 0,
        "passthru": true,
        "mode": "text",
        "delay": 300,
        "topic": "topic",
        "topicType": "msg",
        "x": 470,
        "y": 340,
        "wires": [
            [
                "190e7916.6c6bef"
            ]
        ]
    },
    {
        "id": "473be4f8.aafd7c",
        "type": "ui_text",
        "z": "8c7858ec.ea668",
        "g": "105c4c18.ecd7b4",
        "group": "6743b83e.0ad88",
        "order": 2,
        "width": "0",
        "height": "0",
        "name": "Hash Ausgabe",
        "label": "Berechneter RIPEMD-160 Hash",
        "format": "{{msg.payload}}",
        "layout": "col-center",
        "x": 920,
        "y": 300,
        "wires": []
    },
    {
        "id": "e3cedf4.f4e102",
        "type": "ui_button",
        "z": "8c7858ec.ea668",
        "g": "105c4c18.ecd7b4",
        "name": "Löschen",
        "group": "6743b83e.0ad88",
        "order": 3,
        "width": 0,
        "height": 0,
        "passthru": false,
        "label": "Löschen RIPEMD-160",
        "tooltip": "",
        "color": "",
        "bgcolor": "",
        "icon": "",
        "payload": "",
        "payloadType": "str",
        "topic": "topic",
        "topicType": "msg",
        "x": 140,
        "y": 300,
        "wires": [
            [
                "80dd8194.ef241"
            ]
        ]
    },
    {
        "id": "e26d9089.3ed2b8",
        "type": "ui_button",
        "z": "8c7858ec.ea668",
        "g": "3db0090c.2f77b6",
        "name": "Löschen",
        "group": "95ba5217.dbe8b8",
        "order": 3,
        "width": 0,
        "height": 0,
        "passthru": false,
        "label": "Löschen SHA-256",
        "tooltip": "",
        "color": "",
        "bgcolor": "",
        "icon": "",
        "payload": "+",
        "payloadType": "str",
        "topic": "topic",
        "topicType": "msg",
        "x": 140,
        "y": 140,
        "wires": [
            [
                "435ea6df.7bb288"
            ]
        ]
    },
    {
        "id": "7b6f56a.2631da8",
        "type": "hash sha256",
        "z": "8c7858ec.ea668",
        "g": "3db0090c.2f77b6",
        "name": "",
        "x": 690,
        "y": 180,
        "wires": [
            [
                "f22508c6.fbb47"
            ]
        ]
    },
    {
        "id": "190e7916.6c6bef",
        "type": "hash ripemd160",
        "z": "8c7858ec.ea668",
        "g": "105c4c18.ecd7b4",
        "name": "",
        "x": 700,
        "y": 340,
        "wires": [
            [
                "473be4f8.aafd7c"
            ]
        ]
    },
    {
        "id": "435ea6df.7bb288",
        "type": "function",
        "z": "8c7858ec.ea668",
        "g": "3db0090c.2f77b6",
        "name": "Löschen",
        "func": "msg.payload=\"\";\n\nreturn msg;",
        "outputs": 1,
        "noerr": 0,
        "initialize": "",
        "finalize": "",
        "x": 300,
        "y": 140,
        "wires": [
            [
                "39696a59.a28096",
                "cec4c54d.5248a"
            ]
        ]
    },
    {
        "id": "80dd8194.ef241",
        "type": "function",
        "z": "8c7858ec.ea668",
        "g": "105c4c18.ecd7b4",
        "name": "Löschen",
        "func": "msg.payload=\"\";\n\nreturn msg;",
        "outputs": 1,
        "noerr": 0,
        "initialize": "",
        "finalize": "",
        "x": 300,
        "y": 300,
        "wires": [
            [
                "ef3300a7.cefa2",
                "7afd7dea.0b24fc"
            ]
        ]
    },
    {
        "id": "cec4c54d.5248a",
        "type": "delay",
        "z": "8c7858ec.ea668",
        "g": "3db0090c.2f77b6",
        "name": "",
        "pauseType": "delay",
        "timeout": "0.3",
        "timeoutUnits": "seconds",
        "rate": "1",
        "nbRateUnits": "1",
        "rateUnits": "second",
        "randomFirst": "1",
        "randomLast": "5",
        "randomUnits": "seconds",
        "drop": false,
        "x": 490,
        "y": 120,
        "wires": [
            [
                "cacc40b7.24627"
            ]
        ]
    },
    {
        "id": "cacc40b7.24627",
        "type": "function",
        "z": "8c7858ec.ea668",
        "g": "3db0090c.2f77b6",
        "name": "Löschen Ausgabe",
        "func": "msg.payload=\"\";\n\nreturn msg;",
        "outputs": 1,
        "noerr": 0,
        "initialize": "",
        "finalize": "",
        "x": 710,
        "y": 120,
        "wires": [
            [
                "f22508c6.fbb47"
            ]
        ]
    },
    {
        "id": "7afd7dea.0b24fc",
        "type": "delay",
        "z": "8c7858ec.ea668",
        "g": "105c4c18.ecd7b4",
        "name": "",
        "pauseType": "delay",
        "timeout": "0.3",
        "timeoutUnits": "seconds",
        "rate": "1",
        "nbRateUnits": "1",
        "rateUnits": "second",
        "randomFirst": "1",
        "randomLast": "5",
        "randomUnits": "seconds",
        "drop": false,
        "x": 490,
        "y": 280,
        "wires": [
            [
                "c4ed2e6d.dfadb"
            ]
        ]
    },
    {
        "id": "c4ed2e6d.dfadb",
        "type": "function",
        "z": "8c7858ec.ea668",
        "g": "105c4c18.ecd7b4",
        "name": "Löschen Ausgabe",
        "func": "msg.payload=\"\";\n\nreturn msg;",
        "outputs": 1,
        "noerr": 0,
        "initialize": "",
        "finalize": "",
        "x": 710,
        "y": 280,
        "wires": [
            [
                "473be4f8.aafd7c"
            ]
        ]
    },
    {
        "id": "95ba5217.dbe8b8",
        "type": "ui_group",
        "name": "SHA-256",
        "tab": "9deb93f6.f5de58",
        "order": 2,
        "disp": true,
        "width": "14",
        "collapse": false
    },
    {
        "id": "6743b83e.0ad88",
        "type": "ui_group",
        "name": "RIPEMD-160",
        "tab": "9deb93f6.f5de58",
        "order": 2,
        "disp": true,
        "width": "14",
        "collapse": false
    },
    {
        "id": "9deb93f6.f5de58",
        "type": "ui_tab",
        "name": "Hash",
        "icon": "dashboard",
        "disabled": false,
        "hidden": false
    }
]
